<svg xmlns="http://www.w3.org/2000/svg" width="31.338" height="29.206" viewBox="0 0 31.338 29.206">
  <g id="Group_1533" data-name="Group 1533" transform="translate(-1405.5 -3417.434)">
    <g id="Group_237" data-name="Group 237" transform="translate(618 1675.329)">
      <path id="Path_11264" data-name="Path 11264" d="M1241.067,647.446h9.706a9.944,9.944,0,0,1,9.816,10.067v3.937a9.944,9.944,0,0,1-9.816,10.067h-9.011l-3.055,3.134v-3.439a10.016,10.016,0,0,1-7.456-9.762v-3.937A9.944,9.944,0,0,1,1241.067,647.446Z" transform="translate(-442.751 1095.658)" fill="none" stroke="#fff" stroke-linecap="round" stroke-linejoin="round" stroke-width="2"/>
      <path id="Path_11272" data-name="Path 11272" d="M812.5,1881.5h17.416" transform="translate(-18.008 -131.131)" fill="none" stroke="#fff" stroke-linecap="round" stroke-width="2"/>
      <path id="Path_11273" data-name="Path 11273" d="M812.5,1881.5h17.416" transform="translate(-18.008 -125.888)" fill="none" stroke="#fff" stroke-linecap="round" stroke-width="2"/>
      <path id="Path_11274" data-name="Path 11274" d="M812.5,1882h9.551" transform="translate(-18.008 -121.145)" fill="none" stroke="#fff" stroke-linecap="round" stroke-width="2"/>
    </g>
  </g>
</svg>
